src/CPU.vcd
$comment
Copyright (C) 1991-2010 Altera Corporation
Your use of Altera Corporation's design tools, logic functions 
and other software and tools, and its AMPP partner logic 
functions, and any output files from any of the foregoing 
(including device programming or simulation files), and any 
associated documentation or information are expressly subject 
to the terms and conditions of the Altera Program License 
Subscription Agreement, Altera MegaCore Function License 
Agreement, or other applicable license agreement, including, 
without limitation, that your use is for the sole purpose of 
programming logic devices manufactured by Altera and sold by 
Altera or its authorized distributors.  Please refer to the 
applicable agreement for further details.
$end

$date 
  03/25/2021 18:15:36 
$end
$version 
 QUARTUS_VCD_EXPORT 1.0 
$end
$timescale
  1 ps
$end
$scope module CPU $end
$var reg 1 ! reset $end
$var reg 1 " clock $end
$var reg 32 # AluResult[31:0] $end
$var reg 32 $ MemData[31:0] $end
$var reg 32 % MuxAluSrcAOut[31:0] $end
$var reg 32 & MuxAluSrcBOut[31:0] $end
$var reg 6 ' Opcode[5:0] $end
$var reg 6 ( estado[5:0] $end
$var reg 6 ) funct[5:0] $end
$var reg 32 * RegPCOut[31:0] $end
$var reg 32 + MuxRegDataOut[31:0] $end
$var reg 5 , MuxRegDestOut[4:0] $end
$var reg 1 - RegWrite $end
$var reg 32 . MuxMemAddOut[31:0] $end
$var reg 1 / MemWriteRead $end
$var reg 32 0 RegBOut[31:0] $end
$var reg 32 1 RegHIOut[31:0] $end
$var reg 32 2 RegLOOut[31:0] $end
$upscope $end
$enddefinitions $end
#0
$dumpvars
0!
0"
b0 #
b0 $
b0 %
b0 &
b0 '
b0 (
b0 )
b0 *
b0 +
b0 ,
0-
b0 .
0/
b0 0
b0 1
b0 2
$end
#5000
1"
b100 #
b100 &
b1 (
#10000
0"
#15000
1"
b100000011000110000000000001010 $
b100 %
b0 &
b10 (
b100 *
b100 .
#20000
0"
#25000
1"
b11 (
#30000
0"
#35000
1"
b101100 #
b100000100001000000000000000011 $
b101000 &
b1000 '
b100 (
b1010 )
b11 ,
#40000
0"
#45000
1"
b1010 #
b0 %
b1010 &
b1000 (
b101100 +
#50000
0"
#55000
1"
b100 #
b100 %
b0 &
b111111 (
b1010 +
1-
#60000
0"
#65000
1"
b0 (
#70000
0"
#75000
1"
b1000 #
b100 &
b1 (
0-
#80000
0"
#85000
1"
b1000 %
b0 &
b10 (
b1000 *
b1000 .
#90000
0"
#95000
1"
b11 (
#100000
0"
#105000
1"
b10100 #
b11001000000000000011010 $
b1100 &
b100 (
b11 )
b100 ,
#110000
0"
#115000
1"
b11 #
b0 %
b11 &
b1000 (
b10100 +
#120000
0"
#125000
1"
b1000 #
b1000 %
b0 &
b111111 (
b11 +
1-
#130000
0"
#135000
1"
b0 (
#140000
0"
#145000
1"
b1100 #
b100 &
b1 (
0-
#150000
0"
#155000
1"
b1100 %
b0 &
b10 (
b1100 *
b1100 .
#160000
0"
#165000
1"
b11 (
#170000
0"
#175000
1"
b1110100 #
b10100000010000 $
b1101000 &
b0 '
b100 (
b11010 )
#180000
0"
#185000
1"
b1100 #
b11 &
b1010 (
b1110100 +
b11 0
