src/CPU.vcd
$comment
Copyright (C) 1991-2010 Altera Corporation
Your use of Altera Corporation's design tools, logic functions 
and other software and tools, and its AMPP partner logic 
functions, and any output files from any of the foregoing 
(including device programming or simulation files), and any 
associated documentation or information are expressly subject 
to the terms and conditions of the Altera Program License 
Subscription Agreement, Altera MegaCore Function License 
Agreement, or other applicable license agreement, including, 
without limitation, that your use is for the sole purpose of 
programming logic devices manufactured by Altera and sold by 
Altera or its authorized distributors.  Please refer to the 
applicable agreement for further details.
$end

$date 
  03/26/2021 11:35:11 
$end
$version 
 QUARTUS_VCD_EXPORT 1.0 
$end
$timescale
  1 ps
$end
$scope module CPU $end
$var reg 1 ! reset $end
$var reg 1 " clock $end
$var reg 32 # AluResult[31:0] $end
$var reg 32 $ MemData[31:0] $end
$var reg 32 % MuxAluSrcAOut[31:0] $end
$var reg 32 & MuxAluSrcBOut[31:0] $end
$var reg 6 ' Opcode[5:0] $end
$var reg 6 ( estado[5:0] $end
$var reg 6 ) funct[5:0] $end
$var reg 32 * RegPCOut[31:0] $end
$var reg 32 + MuxRegDataOut[31:0] $end
$var reg 5 , MuxRegDestOut[4:0] $end
$var reg 1 - RegWrite $end
$var reg 32 . MuxMemAddOut[31:0] $end
$var reg 1 / MemWriteRead $end
$var reg 32 0 RegBOut[31:0] $end
$var reg 32 1 RegLOOut[31:0] $end
$var reg 32 2 RegHIOut[31:0] $end
$upscope $end
$enddefinitions $end
#0
$dumpvars
0!
0"
b0 #
b0 $
b0 %
b0 &
b0 '
b0 (
b0 )
b0 *
b0 +
b0 ,
0-
b0 .
0/
b0 0
b0 1
b0 2
$end
#5000
1"
b100 #
b100 &
b1 (
#10000
0"
#15000
1"
b100000001000010000000000000100 $
b100 %
b0 &
b10 (
b100 *
b100 .
#20000
0"
#25000
1"
b11 (
#30000
0"
#35000
1"
b10100 #
b100000010000100000000000000011 $
b10000 &
b1000 '
b100 (
b100 )
b1 ,
#40000
0"
#45000
1"
b100 #
b0 %
b100 &
b1000 (
b10100 +
#50000
0"
#55000
1"
b100 %
b0 &
b0 (
b100 +
1-
#60000
0"
#65000
1"
b1000 #
b100 &
b1 (
0-
#70000
0"
#75000
1"
b1000 %
b0 &
b10 (
b1000 *
b1000 .
#80000
0"
#85000
1"
b11 (
#90000
0"
#95000
1"
b10100 #
b10101100000000010000000011111110 $
b1100 &
b100 (
b11 )
b10 ,
#100000
0"
#105000
1"
b11 #
b0 %
b11 &
b1000 (
b10100 +
#110000
0"
#115000
1"
b1000 #
b1000 %
b0 &
b0 (
b11 +
1-
#120000
0"
#125000
1"
b1100 #
b100 &
b1 (
0-
#130000
0"
#135000
1"
b1100 %
b0 &
b10 (
b1100 *
b1100 .
#140000
0"
#145000
1"
b11 (
#150000
0"
#155000
1"
b10000000100 #
b10000000000000000011010 $
b1111111000 &
b101011 '
b100 (
b111110 )
b1 ,
#160000
0"
#165000
1"
b11111110 #
b0 %
b11111110 &
b100110 (
b10000000100 +
b11111110 .
b100 0
#170000
0"
#175000
1"
b1100 #
b1100 %
b100 &
b100111 (
b11111110 +
#180000
0"
#185000
1"
b1000000000000000000 $
b101000 (
#190000
0"
#195000
1"
b0 (
1/
#200000
0"
#205000
1"
b10000 #
b1 (
b1100 .
0/
#210000
0"
#215000
1"
b100 $
b10000 %
b10 (
b10000 *
b10000 .
#220000
0"
#225000
1"
b10000000000000000011010 $
b11 (
#230000
0"
#235000
1"
b1111000 #
b0 $
b1101000 &
b0 '
b100 (
b11010 )
b0 ,
#240000
0"
#245000
1"
b10000 #
b0 &
b1010 (
b1111000 +
b0 0
#250000
0"
#255000
1"
b11111111111111000000000000010000 #
b1000000000000000000 &
b101101 (
b11111111 .
#260000
0"
#265000
1"
b10000 #
b0 &
b101110 (
b10000 .
#270000
0"
#275000
1"
b100001000000000000010000000000 $
b0 (
#280000
0"
#285000
1"
b100 #
b0 $
b0 %
b100 &
b1 (
b0 *
b0 .
#290000
0"
#295000
1"
b100 %
b0 &
b10 (
b100 *
b100 .
#300000
0"
#305000
1"
b100000001000010000000000000100 $
b11 (
#310000
0"
#315000
1"
b10100 #
b100000010000100000000000000011 $
b10000 &
b1000 '
b100 (
b100 )
b1 ,
#320000
0"
#325000
1"
b1000 #
b100 &
b1000 (
b10100 +
b100 0
#330000
0"
#335000
1"
b100 #
b0 (
b1000 +
1-
#340000
0"
#345000
1"
b1000 #
b1 (
0-
#350000
0"
#355000
1"
b1000 %
b10 (
b1000 *
b1000 .
#360000
0"
#365000
1"
b11 (
#370000
0"
#375000
1"
b10100 #
b10101100000000010000000011111110 $
b1100 &
b100 (
b11 )
b10 ,
#380000
0"
#385000
1"
b110 #
b11 %
b11 &
b1000 (
b10100 +
b11 0
#390000
0"
#395000
1"
b1000 #
b1000 %
b0 (
b110 +
1-
#400000
0"
#405000
1"
b1100 #
b100 &
b1 (
0-
#410000
0"
#415000
1"
b1100 %
b11 &
b10 (
b1100 *
b1100 .
#420000
0"
#425000
1"
b11 (
#430000
0"
#435000
1"
b10000000100 #
b10000000000000000011010 $
b1111111000 &
b101011 '
b100 (
b111110 )
b1 ,
#440000
0"
#445000
1"
b11111110 #
b0 %
b11111110 &
b100110 (
b10000000100 +
b11111110 .
b1000 0
#450000
0"
#455000
1"
b1100 #
b1100 %
b1000 &
b100111 (
b11111110 +
#460000
0"
#465000
1"
b100 $
b101000 (
#470000
0"
#475000
1"
b0 (
1/
#480000
0"
#485000
1"
b10000 #
b100 &
b1 (
b1100 .
0/
#490000
0"
#495000
1"
b1000 $
b10000 %
b1000 &
b10 (
b10000 *
b10000 .
#500000
0"
#505000
1"
b10000000000000000011010 $
b11 (
#510000
0"
#515000
1"
b1111000 #
b0 $
b1101000 &
b0 '
b100 (
b11010 )
b0 ,
#520000
0"
#525000
1"
b10000 #
b0 &
b1010 (
b1111000 +
b0 0
#530000
0"
#535000
1"
b1100 #
b100 &
b101101 (
b11111111 .
#540000
0"
#545000
1"
b10000 #
b0 &
b101110 (
b10000 .
#550000
0"
#555000
1"
b100001000000000000010000000000 $
b0 (
#560000
0"
#565000
1"
b100 #
b0 $
b0 %
b100 &
b1 (
b0 *
b0 .
#570000
0"
#575000
1"
b100 %
b0 &
b10 (
b100 *
b100 .
#580000
0"
#585000
1"
b100000001000010000000000000100 $
b11 (
#590000
0"
#595000
1"
b10100 #
b100000010000100000000000000011 $
b10000 &
b1000 '
b100 (
b100 )
b1 ,
#600000
0"
#605000
1"
b1100 #
b1000 %
b100 &
b1000 (
b10100 +
b1000 0
#610000
0"
#615000
1"
b100 #
b100 %
b1000 &
b0 (
b1100 +
1-
#620000
0"
#625000
1"
b1000 #
b100 &
b1 (
0-
#630000
0"
#635000
1"
b1000 %
b1000 &
b10 (
b1000 *
b1000 .
#640000
0"
#645000
1"
b11 (
#650000
0"
#655000
1"
b10100 #
b10101100000000010000000011111110 $
b1100 &
b100 (
b11 )
b10 ,
#660000
0"
#665000
1"
b1001 #
b110 %
b11 &
b1000 (
b10100 +
b110 0
#670000
0"
#675000
1"
b1000 #
b1000 %
b110 &
b0 (
b1001 +
1-
#680000
0"
#685000
1"
b1100 #
b100 &
b1 (
0-
#690000
0"
#695000
1"
b1100 %
b110 &
b10 (
b1100 *
b1100 .
#700000
0"
#705000
1"
b11 (
#710000
0"
#715000
1"
b10000000100 #
b10000000000000000011010 $
b1111111000 &
b101011 '
b100 (
b111110 )
b1 ,
#720000
0"
#725000
1"
b11111110 #
b0 %
b11111110 &
b100110 (
b10000000100 +
b11111110 .
b1100 0
#730000
0"
#735000
1"
b1100 #
b1100 %
b1100 &
b100111 (
b11111110 +
#740000
0"
#745000
1"
b1000 $
b101000 (
#750000
0"
#755000
1"
b0 (
1/
#760000
0"
#765000
1"
b10000 #
b100 &
b1 (
b1100 .
0/
#770000
0"
#775000
1"
b1100 $
b10000 %
b1100 &
b10 (
b10000 *
b10000 .
#780000
0"
#785000
1"
b10000000000000000011010 $
b11 (
#790000
0"
#795000
1"
b1111000 #
b0 $
b1101000 &
b0 '
b100 (
b11010 )
b0 ,
#800000
0"
#805000
1"
b10000 #
b0 &
b1010 (
b1111000 +
b0 0
#810000
0"
#815000
1"
b1000 #
b1000 &
b101101 (
b11111111 .
#820000
0"
#825000
1"
b10000 #
b0 &
b101110 (
b10000 .
#830000
0"
#835000
1"
b100001000000000000010000000000 $
b0 (
#840000
0"
#845000
1"
b100 #
b0 $
b0 %
b100 &
b1 (
b0 *
b0 .
#850000
0"
#855000
1"
b100 %
b0 &
b10 (
b100 *
b100 .
#860000
0"
#865000
1"
b100000001000010000000000000100 $
b11 (
#870000
0"
#875000
1"
b10100 #
b100000010000100000000000000011 $
b10000 &
b1000 '
b100 (
b100 )
b1 ,
#880000
0"
#885000
1"
b10000 #
b1100 %
b100 &
b1000 (
b10100 +
b1100 0
#890000
0"
#895000
1"
b100 #
b100 %
b1100 &
b0 (
b10000 +
1-
#900000
0"
#905000
1"
b1000 #
b100 &
b1 (
0-
#910000
0"
#915000
1"
b1000 %
b1100 &
b10 (
b1000 *
b1000 .
#920000
0"
#925000
1"
b11 (
#930000
0"
#935000
1"
b10100 #
b10101100000000010000000011111110 $
b100 (
b11 )
b10 ,
#940000
0"
#945000
1"
b1100 #
b1001 %
b11 &
b1000 (
b10100 +
b1001 0
#950000
0"
#955000
1"
b1000 #
b1000 %
b1001 &
b0 (
b1100 +
1-
#960000
0"
#965000
1"
b1100 #
b100 &
b1 (
0-
#970000
0"
#975000
1"
b1100 %
b1001 &
b10 (
b1100 *
b1100 .
#980000
0"
#985000
1"
b11 (
#990000
0"
#995000
1"
b10000000100 #
b10000000000000000011010 $
b1111111000 &
b101011 '
b100 (
b111110 )
b1 ,
