src/CPU.vcd
$comment
Copyright (C) 1991-2010 Altera Corporation
Your use of Altera Corporation's design tools, logic functions 
and other software and tools, and its AMPP partner logic 
functions, and any output files from any of the foregoing 
(including device programming or simulation files), and any 
associated documentation or information are expressly subject 
to the terms and conditions of the Altera Program License 
Subscription Agreement, Altera MegaCore Function License 
Agreement, or other applicable license agreement, including, 
without limitation, that your use is for the sole purpose of 
programming logic devices manufactured by Altera and sold by 
Altera or its authorized distributors.  Please refer to the 
applicable agreement for further details.
$end

$date 
  03/26/2021 15:23:11 
$end
$version 
 QUARTUS_VCD_EXPORT 1.0 
$end
$timescale
  1 ps
$end
$scope module CPU $end
$var reg 1 ! reset $end
$var reg 1 " clock $end
$var reg 32 # AluResult[31:0] $end
$var reg 32 $ MemData[31:0] $end
$var reg 32 % MuxAluSrcAOut[31:0] $end
$var reg 32 & MuxAluSrcBOut[31:0] $end
$var reg 6 ' Opcode[5:0] $end
$var reg 6 ( estado[5:0] $end
$var reg 6 ) funct[5:0] $end
$var reg 32 * RegPCOut[31:0] $end
$var reg 32 + MuxRegDataOut[31:0] $end
$var reg 5 , MuxRegDestOut[4:0] $end
$var reg 1 - RegWrite $end
$var reg 32 . MuxMemAddOut[31:0] $end
$var reg 1 / MemWriteRead $end
$var reg 32 0 RegBOut[31:0] $end
$var reg 32 1 RegAOut[31:0] $end
$upscope $end
$enddefinitions $end
#0
$dumpvars
0!
0"
b0 #
b0 $
b0 %
b0 &
b0 '
b0 (
b0 )
b0 *
b0 +
b0 ,
0-
b0 .
0/
b0 0
b0 1
$end
#5000
1"
b100 #
b100 &
b1 (
#10000
0"
#15000
1"
b1100000000000000000000110010 $
b100 %
b0 &
b10 (
b100 *
b100 .
#20000
0"
#25000
1"
b11 (
#30000
0"
#35000
1"
b11001100 #
b0 $
b11001000 &
b11 '
b100 (
b110010 )
#40000
0"
#45000
1"
b100 #
b0 &
b111 (
b11001100 +
#50000
0"
#55000
1"
b11001000 #
b11001000 %
b111111 (
b11001000 *
b100 +
b11111 ,
1-
b11001000 .
#60000
0"
#65000
1"
b0 (
#70000
0"
#75000
1"
b11001100 #
b100 &
b1 (
b0 ,
0-
#80000
0"
#85000
1"
b11001100 %
b0 &
b10 (
b11001100 *
b11001100 .
#90000
0"
#95000
1"
b11 (
#100000
0"
#105000
1"
b0 '
b100 (
b0 )
#110000
0"
#115000
1"
b10001 (
b11001100 +
#120000
0"
#125000
1"
b10110 (
#130000
0"
#135000
1"
b111111 (
b0 +
1-
#140000
0"
#145000
1"
b0 (
#150000
0"
#155000
1"
b11010000 #
b100 &
b1 (
b11001100 +
0-
#160000
0"
#165000
1"
b11010000 %
b0 &
b10 (
b11010000 *
b11010000 .
#170000
0"
#175000
1"
b11 (
#180000
0"
#185000
1"
b100 (
#190000
0"
#195000
1"
b10001 (
b11010000 +
#200000
0"
#205000
1"
b10110 (
#210000
0"
#215000
1"
b111111 (
b0 +
1-
#220000
0"
#225000
1"
b0 (
#230000
0"
#235000
1"
b11010100 #
b100 &
b1 (
b11010000 +
0-
#240000
0"
#245000
1"
b11010100 %
b0 &
b10 (
b11010100 *
b11010100 .
#250000
0"
#255000
1"
b11 (
#260000
0"
#265000
1"
b100 (
#270000
0"
#275000
1"
b10001 (
b11010100 +
#280000
0"
#285000
1"
b10110 (
#290000
0"
#295000
1"
b111111 (
b0 +
1-
#300000
0"
#305000
1"
b0 (
#310000
0"
#315000
1"
b11011000 #
b100 &
b1 (
b11010100 +
0-
#320000
0"
#325000
1"
b11011000 %
b0 &
b10 (
b11011000 *
b11011000 .
#330000
0"
#335000
1"
b11 (
#340000
0"
#345000
1"
b100 (
#350000
0"
#355000
1"
b10001 (
b11011000 +
#360000
0"
#365000
1"
b10110 (
#370000
0"
#375000
1"
b111111 (
b0 +
1-
#380000
0"
#385000
1"
b0 (
#390000
0"
#395000
1"
b11011100 #
b100 &
b1 (
b11011000 +
0-
#400000
0"
#405000
1"
b11011100 %
b0 &
b10 (
b11011100 *
b11011100 .
#410000
0"
#415000
1"
b11 (
#420000
0"
#425000
1"
b100 (
#430000
0"
#435000
1"
b10001 (
b11011100 +
#440000
0"
#445000
1"
b10110 (
#450000
0"
#455000
1"
b111111 (
b0 +
1-
#460000
0"
#465000
1"
b0 (
#470000
0"
#475000
1"
b11100000 #
b100 &
b1 (
b11011100 +
0-
#480000
0"
#485000
1"
b11100000 %
b0 &
b10 (
b11100000 *
b11100000 .
#490000
0"
#495000
1"
b11 (
#500000
0"
#505000
1"
b100 (
#510000
0"
#515000
1"
b10001 (
b11100000 +
#520000
0"
#525000
1"
b10110 (
#530000
0"
#535000
1"
b111111 (
b0 +
1-
#540000
0"
#545000
1"
b0 (
#550000
0"
#555000
1"
b11100100 #
b100 &
b1 (
b11100000 +
0-
#560000
0"
#565000
1"
b11100100 %
b0 &
b10 (
b11100100 *
b11100100 .
#570000
0"
#575000
1"
b11 (
#580000
0"
#585000
1"
b100 (
#590000
0"
#595000
1"
b10001 (
b11100100 +
#600000
0"
#605000
1"
b10110 (
#610000
0"
#615000
1"
b111111 (
b0 +
1-
#620000
0"
#625000
1"
b0 (
#630000
0"
#635000
1"
b11101000 #
b100 &
b1 (
b11100100 +
0-
#640000
0"
#645000
1"
b11101000 %
b0 &
b10 (
b11101000 *
b11101000 .
#650000
0"
#655000
1"
b11 (
#660000
0"
#665000
1"
b100 (
#670000
0"
#675000
1"
b10001 (
b11101000 +
#680000
0"
#685000
1"
b10110 (
#690000
0"
#695000
1"
b111111 (
b0 +
1-
#700000
0"
#705000
1"
b0 (
#710000
0"
#715000
1"
b11101100 #
b100 &
b1 (
b11101000 +
0-
#720000
0"
#725000
1"
b11101100 %
b0 &
b10 (
b11101100 *
b11101100 .
#730000
0"
#735000
1"
b11 (
#740000
0"
#745000
1"
b100 (
#750000
0"
#755000
1"
b10001 (
b11101100 +
#760000
0"
#765000
1"
b10110 (
#770000
0"
#775000
1"
b111111 (
b0 +
1-
#780000
0"
#785000
1"
b0 (
#790000
0"
#795000
1"
b11110000 #
b100 &
b1 (
b11101100 +
0-
#800000
0"
#805000
1"
b11110000 %
b0 &
b10 (
b11110000 *
b11110000 .
#810000
0"
#815000
1"
b11 (
#820000
0"
#825000
1"
b100 (
#830000
0"
#835000
1"
b10001 (
b11110000 +
#840000
0"
#845000
1"
b10110 (
#850000
0"
#855000
1"
b111111 (
b0 +
1-
#860000
0"
#865000
1"
b0 (
#870000
0"
#875000
1"
b11110100 #
b100 &
b1 (
b11110000 +
0-
#880000
0"
#885000
1"
b11110100 %
b0 &
b10 (
b11110100 *
b11110100 .
#890000
0"
#895000
1"
b11 (
#900000
0"
#905000
1"
b100 (
#910000
0"
#915000
1"
b10001 (
b11110100 +
#920000
0"
#925000
1"
b10110 (
#930000
0"
#935000
1"
b111111 (
b0 +
1-
#940000
0"
#945000
1"
b0 (
#950000
0"
#955000
1"
b11111000 #
b100 &
b1 (
b11110100 +
0-
#960000
0"
#965000
1"
b11111000 %
b0 &
b10 (
b11111000 *
b11111000 .
#970000
0"
#975000
1"
b11 (
#980000
0"
#985000
1"
b100 (
#990000
0"
#995000
1"
b10001 (
b11111000 +
