src/CPU.vcd
$comment
Copyright (C) 1991-2010 Altera Corporation
Your use of Altera Corporation's design tools, logic functions 
and other software and tools, and its AMPP partner logic 
functions, and any output files from any of the foregoing 
(including device programming or simulation files), and any 
associated documentation or information are expressly subject 
to the terms and conditions of the Altera Program License 
Subscription Agreement, Altera MegaCore Function License 
Agreement, or other applicable license agreement, including, 
without limitation, that your use is for the sole purpose of 
programming logic devices manufactured by Altera and sold by 
Altera or its authorized distributors.  Please refer to the 
applicable agreement for further details.
$end

$date 
  03/26/2021 08:26:26 
$end
$version 
 QUARTUS_VCD_EXPORT 1.0 
$end
$timescale
  1 ps
$end
$scope module CPU $end
$var reg 1 ! reset $end
$var reg 1 " clock $end
$var reg 32 # AluResult[31:0] $end
$var reg 32 $ MemData[31:0] $end
$var reg 32 % MuxAluSrcAOut[31:0] $end
$var reg 32 & MuxAluSrcBOut[31:0] $end
$var reg 6 ' Opcode[5:0] $end
$var reg 6 ( estado[5:0] $end
$var reg 6 ) funct[5:0] $end
$var reg 32 * RegPCOut[31:0] $end
$var reg 32 + MuxRegDataOut[31:0] $end
$var reg 5 , MuxRegDestOut[4:0] $end
$var reg 1 - RegWrite $end
$var reg 32 . MuxMemAddOut[31:0] $end
$var reg 1 / MemWriteRead $end
$var reg 32 0 RegBOut[31:0] $end
$var reg 32 1 RegLOOut[31:0] $end
$var reg 32 2 RegHIOut[31:0] $end
$upscope $end
$enddefinitions $end
#0
$dumpvars
0!
0"
b0 #
b0 $
b0 %
b0 &
b0 '
b0 (
b0 )
b0 *
b0 +
b0 ,
0-
b0 .
0/
b0 0
b0 1
b0 2
$end
#5000
1"
b100 #
b100 &
b1 (
#10000
0"
#15000
1"
b100000001000010000000000001100 $
b100 %
b0 &
b10 (
b100 *
b100 .
#20000
0"
#25000
1"
b11 (
#30000
0"
#35000
1"
b110100 #
b100000010000100000000000000101 $
b110000 &
b1000 '
b100 (
b1100 )
b1 ,
#40000
0"
#45000
1"
b1100 #
b0 %
b1100 &
b1000 (
b110100 +
#50000
0"
#55000
1"
b100 #
b100 %
b0 &
b0 (
b1100 +
1-
#60000
0"
#65000
1"
b1000 #
b100 &
b1 (
0-
#70000
0"
#75000
1"
b1000 %
b0 &
b10 (
b1000 *
b1000 .
#80000
0"
#85000
1"
b11 (
#90000
0"
#95000
1"
b11100 #
b1000100000000000011010 $
b10100 &
b100 (
b101 )
b10 ,
#100000
0"
#105000
1"
b101 #
b0 %
b101 &
b1000 (
b11100 +
#110000
0"
#115000
1"
b1000 #
b1000 %
b0 &
b0 (
b101 +
1-
#120000
0"
#125000
1"
b1100 #
b100 &
b1 (
0-
#130000
0"
#135000
1"
b1100 %
b0 &
b10 (
b1100 *
b1100 .
#140000
0"
#145000
1"
b11 (
#150000
0"
#155000
1"
b1110100 #
b0 $
b1101000 &
b0 '
b100 (
b11010 )
#160000
0"
#165000
1"
b1100 #
b101 &
b1010 (
b1110100 +
b101 0
