src/CPU.vcd
$comment
Copyright (C) 1991-2010 Altera Corporation
Your use of Altera Corporation's design tools, logic functions 
and other software and tools, and its AMPP partner logic 
functions, and any output files from any of the foregoing 
(including device programming or simulation files), and any 
associated documentation or information are expressly subject 
to the terms and conditions of the Altera Program License 
Subscription Agreement, Altera MegaCore Function License 
Agreement, or other applicable license agreement, including, 
without limitation, that your use is for the sole purpose of 
programming logic devices manufactured by Altera and sold by 
Altera or its authorized distributors.  Please refer to the 
applicable agreement for further details.
$end

$date 
  03/27/2021 08:25:20 
$end
$version 
 QUARTUS_VCD_EXPORT 1.0 
$end
$timescale
  1 ps
$end
$scope module CPU $end
$var reg 1 ! reset $end
$var reg 1 " clock $end
$var reg 32 # AluResult[31:0] $end
$var reg 32 $ MemData[31:0] $end
$var reg 32 % MuxAluSrcAOut[31:0] $end
$var reg 32 & MuxAluSrcBOut[31:0] $end
$var reg 6 ' Opcode[5:0] $end
$var reg 6 ( estado[5:0] $end
$var reg 6 ) funct[5:0] $end
$var reg 32 * RegPCOut[31:0] $end
$var reg 32 + MuxRegDataOut[31:0] $end
$var reg 5 , MuxRegDestOut[4:0] $end
$var reg 1 - RegWrite $end
$var reg 32 . MuxMemAddOut[31:0] $end
$var reg 1 / MemWriteRead $end
$var reg 32 0 RegBOut[31:0] $end
$var reg 32 1 RegEPCOut[31:0] $end
$var reg 1 2 Overflow $end
$upscope $end
$enddefinitions $end
#0
$dumpvars
0!
0"
b0 #
b0 $
b0 %
b0 &
b0 '
b0 (
b0 )
b0 *
b0 +
b0 ,
0-
b0 .
0/
b0 0
b0 1
02
$end
#5000
1"
b100 #
b100 &
b1 (
#10000
0"
#15000
1"
b100000000001000000000000000011 $
b100 %
b0 &
b10 (
b100 *
b100 .
#20000
0"
#25000
1"
b11 (
#30000
0"
#35000
1"
b10000 #
b100000000001010111111111111111 $
b1100 &
b1000 '
b100 (
b11 )
b100 ,
#40000
0"
#45000
1"
b11 #
b0 %
b11 &
b1000 (
b10000 +
#50000
0"
#55000
1"
b100 #
b100 %
b0 &
b0 (
b11 +
1-
#60000
0"
#65000
1"
b1000 #
b100 &
b1 (
0-
#70000
0"
#75000
1"
b1000 %
b0 &
b10 (
b1000 *
b1000 .
#80000
0"
#85000
1"
b11 (
#90000
0"
#95000
1"
b100000000000000100 #
b111100000001100111111111111111 $
b11111111111111100 &
b100 (
b111111 )
b101 ,
#100000
0"
#105000
1"
b111111111111111 #
b0 %
b111111111111111 &
b1000 (
b100000000000000100 +
#110000
0"
#115000
1"
b1000 #
b1000 %
b0 &
b0 (
b111111111111111 +
1-
#120000
0"
#125000
1"
b1100 #
b100 &
b1 (
0-
#130000
0"
#135000
1"
b1100 %
b0 &
b10 (
b1100 *
b1100 .
#140000
0"
#145000
1"
b11 (
#150000
0"
#155000
1"
b100000000000001000 #
b110001010011100000100000 $
b11111111111111100 &
b1111 '
b100 (
b110 ,
#160000
0"
#165000
1"
b1100 #
b0 &
b111111 (
b1111111111111110000000000000000 +
1-
#170000
0"
#175000
1"
b0 (
#180000
0"
#185000
1"
b10000 #
b100 &
b1 (
b100000000000001000 +
0-
#190000
0"
#195000
1"
b10000 %
b0 &
b10 (
b10000 *
b10000 .
#200000
0"
#205000
1"
b11 (
#210000
0"
#215000
1"
b1110000010010000 #
b111001010011100000100000 $
b1110000010000000 &
b0 '
b100 (
b100000 )
b101 ,
#220000
0"
#225000
1"
b1111111111111110111111111111111 #
b1111111111111110000000000000000 %
b111111111111111 &
b101 (
b1110000010010000 +
b111111111111111 0
#230000
0"
#235000
1"
b10000 #
b10000 %
b111111 (
b1111111111111110111111111111111 +
b111 ,
1-
#240000
0"
#245000
1"
b0 (
#250000
0"
#255000
1"
b10100 #
b100 &
b1 (
b101 ,
0-
#260000
0"
#265000
1"
b10100 %
b111111111111111 &
b10 (
b10100 *
b10100 .
#270000
0"
#275000
1"
b11 (
#280000
0"
#285000
1"
b1110000010010100 #
b101001100100000000100010 $
b1110000010000000 &
b100 (
#290000
0"
#295000
1"
b1111111111111111111111111111110 #
b1111111111111110111111111111111 %
b111111111111111 &
b101 (
b1110000010010100 +
#300000
0"
#305000
1"
b10100 #
b10100 %
b111111 (
b1111111111111111111111111111110 +
b111 ,
1-
#310000
0"
#315000
1"
b0 (
#320000
0"
#325000
1"
b11000 #
b100 &
b1 (
b101 ,
0-
#330000
0"
#335000
1"
b11000 %
b111111111111111 &
b10 (
b11000 *
b11000 .
#340000
0"
#345000
1"
b11 (
#350000
0"
#355000
1"
b10000000010100000 #
b1000001110100100000100100 $
b10000000010001000 &
b100 (
b100010 )
b110 ,
#360000
0"
#365000
1"
b10000000000000010111111111111111 #
b111111111111111 %
b1111111111111110000000000000000 &
b101 (
b10000000010100000 +
b1111111111111110000000000000000 0
#370000
0"
#375000
1"
b11000 #
b11000 %
b111111 (
b10000000000000010111111111111111 +
b1000 ,
1-
#380000
0"
#385000
1"
b0 (
#390000
0"
#395000
1"
b11100 #
b100 &
b1 (
b110 ,
0-
#400000
0"
#405000
1"
b11100 %
b1111111111111110000000000000000 &
b10 (
b11100 *
b11100 .
#410000
0"
#415000
1"
b11 (
#420000
0"
#425000
1"
b10010000010101100 #
b1100000000000000000000001100 $
b10010000010010000 &
b100 (
b100100 )
b111 ,
#430000
0"
#435000
1"
b10111111111111110 #
b10000000000000010111111111111111 %
b1111111111111111111111111111110 &
b101 (
b10010000010101100 +
b1111111111111111111111111111110 0
12
#440000
0"
#445000
1"
b11100 #
b11100 %
b111111 (
b10111111111111110 +
b1001 ,
1-
02
#450000
0"
#455000
1"
b0 (
#460000
0"
#465000
1"
b100000 #
b100 &
b1 (
b111 ,
0-
#470000
0"
#475000
1"
b100000 %
b1111111111111111111111111111110 &
b10 (
b100000 *
b100000 .
#480000
0"
#485000
1"
b11 (
#490000
0"
#495000
1"
b1010000 #
b1001011001010000000101010 $
b110000 &
b11 '
b100 (
b1100 )
b0 ,
#500000
0"
#505000
1"
b100000 #
b0 &
b111 (
b1010000 +
b0 0
#510000
0"
#515000
1"
b110000 #
b110000 %
b0 (
b110000 *
b100000 +
b11111 ,
1-
b110000 .
#520000
0"
#525000
1"
b110100 #
b100 &
b1 (
b0 ,
0-
#530000
0"
#535000
1"
b100100111010100000000000000010 $
b110100 %
b0 &
b10 (
b110100 *
b110100 .
#540000
0"
#545000
1"
b11 (
#550000
0"
#555000
1"
b111100 #
b1000000000000000000000010000 $
b1000 &
b1001 '
b100 (
b10 )
b1010 ,
#560000
0"
#565000
1"
b10000000000000000000000000000000 #
b1111111111111111111111111111110 %
b10 &
b1000 (
b111100 +
12
#570000
0"
#575000
1"
b110100 #
b110100 %
b0 &
b0 (
b10000000000000000000000000000000 +
1-
02
#580000
0"
#585000
1"
b111000 #
b100 &
b1 (
0-
#590000
0"
#595000
1"
b111000 %
b0 &
b10 (
b111000 *
b111000 .
#600000
0"
#605000
1"
b11 (
#610000
0"
#615000
1"
b1111000 #
b100000000000110110001101000100 $
b1000000 &
b10 '
b100 (
b10000 )
b0 ,
#620000
0"
#625000
1"
b111000 #
b0 &
b111111 (
b1111000 +
#630000
0"
#635000
1"
b1000000 #
b1000000 %
b0 (
b1000000 *
b1000000 .
#640000
0"
#645000
1"
b1000100 #
b100 &
b1 (
#650000
0"
#655000
1"
b111010010000000000011000 $
b1000100 %
b0 &
b10 (
b1000100 *
b1000100 .
#660000
0"
#665000
1"
b11 (
#670000
0"
#675000
1"
b10100100 #
b101100000010010 $
b1100000 &
b0 '
b100 (
b11000 )
b1001 ,
#680000
0"
#685000
1"
b1000100 #
b10111111111111110 &
b1001 (
b10100100 +
b10111111111111110 0
